         run       event       nTopo   nIdTracks      nMuons       nElec   nTrueElec   nFakeElec       nPhot   nTruePhot   nFakePhot
      330470  1183721871         761         829           5          16           0          16          36           0          36
      330470  1183722156         360         388           1           3           0           3          12           0          12
      330470  1183722158           1           0           0           0           0           0           0           0           0
      330470  1183722342         394         429           0           2           0           2          15           0          15
      330470  1183723134         463         502           4           3           0           3          16           0          16
      330470  1183723677         583         584           3          13           0          13          33           0          33
      330470  1183724572         518         627           4           7           0           7          15           0          15
      330470  1183725127         367         460           2           9           0           9          16           0          16
      330470  1183726136         561         626           5           6           0           6          18           0          18
      330470  1183727515         408         398           0           7           0           7          19           0          19
      330470  1183727920         565         689           2           7           0           7          23           0          23
      330470  1183727953         532         595           4           7           0           7          24           0          24
      330470  1183728466         399         442           1          11           0          11          14           0          14
      330470  1183728476         539         529           0          14           0          14          25           0          25
      330470  1183729021         390         408           1          12           0          12          14           0          14
      330470  1183729025         420         475           0           8           0           8          14           0          14
      330470  1183730486         406         399           3           0           0           0          20           0          20
      330470  1183731705         735         779           3          14           0          14          42           0          42
      330470  1183731814         591         539           4           6           0           6          29           0          29
      330470  1183731884         420         374           2           2           0           2          12           0          12
      330470  1183732647         467         503           1           8           0           8          20           0          20
      330470  1183733040         381         290           2           5           0           5          10           0          10
      330470  1183733070         431         553           1          16           0          16          24           0          24
      330470  1183733727         678         789           1           5           0           5          35           0          35
      330470  1183734651         361         374           3           5           0           5          18           0          18
      330470  1183734704         438         446           6           2           0           2          23           0          23
      330470  1183734871         556         602           2          14           0          14          21           0          21
      330470  1183735332         406         386           1           5           0           5          10           0          10
      330470  1183735593         480         451           1           5           0           5          26           0          26
      330470  1183735786         311         217           1           0           0           0           8           0           8
      330470  1183736050         589         694           1          11           0          11          29           0          29
      330470  1183736197         453         486           5           7           0           7          15           0          15
      330470  1183736364         427         407           1           6           0           6          16           0          16
      330470  1183736418         466         487           2          13           0          13          17           0          17
      330470  1183736475         741         711           1           2           0           2          22           0          22
      330470  1183737047         481         540           1           6           0           6          24           0          24
      330470  1183737710         492         504           3          22           0          22          20           0          20
      330470  1183738386         525         474           2          20           0          20          30           0          30
      330470  1183738728           1           0           0           0           0           0           0           0           0
      330470  1183738949         368         451           1           5           0           5          11           0          11
      330470  1183739966         531         428           1          12           0          12          24           0          24
      330470  1183740967         558         649           0           4           0           4          19           0          19
      330470  1183741011         240         346           3           5           0           5          13           0          13
      330470  1183742016         289         307           1           4           0           4           6           0           6
      330470  1183742376         372         397           1           2           0           2          10           0          10
      330470  1183742489         152         127           1           1           0           1           1           0           1
      330470  1183742713         364         436           2          11           0          11          16           0          16
      330470  1183743040         285         326           0           3           0           3           5           0           5
      330470  1183743941         404         368           2          15           0          15          13           0          13
      330470  1183744491         530         650           1          13           0          13          16           0          16
      330470  1183744557         302         358           0           4           0           4          11           0          11
      330470  1183744835         411         416           1           8           0           8          19           0          19
      330470  1183744941         316         384           2           7           0           7          17           0          17
      330470  1183745001         320         380           0          10           0          10          12           0          12
      330470  1183745791         361         401           0          19           0          19          20           0          20
      330470  1183745889         371         380           1           5           0           5          10           0          10
      330470  1183746019         446         489           0           7           0           7          24           0          24
      330470  1183746343         492         495           0           3           0           3          16           0          16
      330470  1183746391         364         441           2          15           0          15          20           0          20
      330470  1183746668         459         380           0           7           0           7          20           0          20
      330470  1183746710           6           0           0           0           0           0           0           0           0
      330470  1183746776         348         356           1           9           0           9          27           0          27
      330470  1183747953         302         377           2           4           0           4          10           0          10
      330470  1183748096         455         491           0           5           0           5          17           0          17
      330470  1183748136         663         654           1          12           0          12          26           0          26
      330470  1183748263         396         410           3           8           0           8          16           0          16
      330470  1183748421         460         422           1           8           0           8          15           0          15
      330470  1183748705         490         523           2           9           0           9          20           0          20
      330470  1183750758         436         393           1           4           0           4          15           0          15
      330470  1183750781         377         365           1           5           0           5          16           0          16
      330470  1183750906         702         757           3          10           0          10          29           0          29
      330470  1183751782         239         246           0           0           0           0           6           0           6
      330470  1183752624         347         366           3           5           0           5          15           0          15
      330470  1183753006         357         398           2           4           0           4          14           0          14
      330470  1183753030         398         352           2          23           0          23          20           0          20
      330470  1183753541         400         453           2           8           0           8          11           0          11
      330470  1183754806         470         424           0           2           0           2          17           0          17
      330470  1183755085         482         516           3          15           0          15          27           0          27
      330470  1183756180         447         374           0           2           0           2          16           0          16
      330470  1183756295         367         451           3           7           0           7          12           0          12
      330470  1183756303         565         586           1          24           0          24          24           0          24
      330470  1183756939         606         591           1          19           0          19          26           0          26
      330470  1183756951         283         272           1           2           0           2           4           0           4
      330470  1183757556         300         272           1           5           0           5          10           0          10
      330470  1183758317         685         736           1          13           0          13          29           0          29
      330470  1183758663         340         310           0           5           0           5          11           0          11
      330470  1183758709         340         255           2           4           0           4          12           0          12
      330470  1183758819         446         528           4          24           0          24          19           0          19
      330470  1183759087         476         451           2           8           0           8          19           0          19
      330470  1183759951         610         728           4          18           0          18          32           0          32
      330470  1183760662         421         421           1           8           0           8          18           0          18
      330470  1183760713         430         489           0          11           0          11          21           0          21
      330470  1183761092         301         437           3           6           0           6           8           0           8
      330470  1183762287         384         434           3           4           0           4          13           0          13
      330470  1183762295         411         424           2           9           0           9          16           0          16
      330470  1183762346         487         457           3          29           0          29          26           0          26
      330470  1183762622         389         401           1           6           0           6          15           0          15
      330470  1183762728         539         496           0          19           0          19          27           0          27
      330470  1183764544         400         364           2           9           0           9          15           0          15
      330470  1183764842         585         645           1          15           0          15          29           0          29
      330470  1183765366         464         522           1           6           0           6          10           0          10
      330470  1183765436         301         213           0           5           0           5           5           0           5
      330470  1183767528         668         643           1           9           0           9          28           0          28
      330470  1183767718         467         454           2          15           0          15          17           0          17
      330470  1183768132         410         432           2           4           0           4          15           0          15
      330470  1183768747         598         594           3          24           0          24          25           0          25
      330470  1183768758         656         729           3          15           0          15          24           0          24
      330470  1183769295         342         338           2           0           0           0           6           0           6
      330470  1183769514         383         372           2           2           0           2          14           0          14
      330470  1183769648         527         579           4           6           0           6          17           0          17
      330470  1183769939         348         362           3           8           0           8          11           0          11
      330470  1183770542         525         545           2          12           0          12          28           0          28
      330470  1183771482         391         433           0           8           0           8          17           0          17
      330470  1183771836         373         452           3           1           0           1          13           0          13
      330470  1183771838         409         313           0           3           0           3          18           0          18
      330470  1183771849         555         454           2           9           0           9          25           0          25
      330470  1183773222         341         393           4           2           0           2           1           0           1
      330470  1183773321         583         544           1           7           0           7          33           0          33
      330470  1183773556         421         377           0           7           0           7          17           0          17
      330470  1183773832         307         209           0           2           0           2          13           0          13
      330470  1183774235         325         348           1          11           0          11          13           0          13
      330470  1183775004         453         401           2           1           0           1          17           0          17
      330470  1183775209          57           0           0           0           0           0           0           0           0
      330470  1183776444         450         417           3           4           0           4          14           0          14
      330470  1183776871         425         441           3           9           0           9          18           0          18
      330470  1183777434         310         328           0           4           0           4          13           0          13
      330470  1183777582         422         480           2           9           0           9          14           0          14
      330470  1183778621         584         651           1           6           0           6          24           0          24
      330470  1183779564         332         315           3           5           0           5           7           0           7
      330470  1183779664         432         341           0          10           0          10          21           0          21
      330470  1183779916         499         525           3           5           0           5          17           0          17
      330470  1183780039         444         377           3           2           0           2          16           0          16
      330470  1183780441         560         546           3           8           0           8          29           0          29
      330470  1183781429         432         499           1          19           0          19          28           0          28
      330470  1183781526         711         904           0          13           0          13          36           0          36
      330470  1183782439         478         550           2           6           0           6          18           0          18
      330470  1183782592         487         574           3           6           0           6          16           0          16
      330470  1183782928         539         645           3           8           0           8          25           0          25
      330470  1183783289         507         599           1          15           0          15          20           0          20
      330470  1183783835         437         472           3          15           0          15          30           0          30
      330470  1183783921         518         489           1          22           0          22          32           0          32
      330470  1183784212         561         538           0          36           0          36          28           0          28
      330470  1183784686         458         490           7           5           0           5          23           0          23
      330470  1183784788         350         327           3          18           0          18          16           0          16
      330470  1183785404         682         719           4          11           0          11          32           0          32
      330470  1183786663         355         436           2           2           0           2           6           0           6
      330470  1183787021         684         606           2           9           0           9          33           0          33
      330470  1183787124         431         384           2           3           0           3          17           0          17
      330470  1183787218         252         198           0           3           0           3           8           0           8
      330470  1183787604         393         409           1           6           0           6          18           0          18
      330470  1183787946         321         325           1           2           0           2           9           0           9
      330470  1183789290         453         434           0           7           0           7          24           0          24
      330470  1183789772         509         557           1          17           0          17          29           0          29
      330470  1183791251         244         235           0           3           0           3          10           0          10
      330470  1183791330         473         700           3           9           0           9          17           0          17
      330470  1183791750         557         620           0           7           0           7          22           0          22
      330470  1183792274         381         397           0          24           0          24          27           0          27
      330470  1183792395         364         289           0          17           0          17          14           0          14
      330470  1183792990         468         509           4          24           0          24          28           0          28
      330470  1183793190         396         527           1          10           0          10          14           0          14
      330470  1183793693         492         620           2          16           0          16          29           0          29
      330470  1183793783         562         522           5          20           0          20          27           0          27
      330470  1183794278         454         558           0           7           0           7           9           0           9
      330470  1183794508         448         473           2          17           0          17          19           0          19
      330470  1183794655         393         364           1           3           0           3           5           0           5
      330470  1183794666         774         933           2          12           0          12          33           0          33
      330470  1183795240         458         462           4           9           0           9          23           0          23
      330470  1183795260         773         649           2           6           0           6          37           0          37
      330470  1183795329         458         356           0           4           0           4          14           0          14
      330470  1183795353         507         619           0          13           0          13          31           0          31
      330470  1183797124         420         346           1           4           0           4          11           0          11
      330470  1183797477         347         449           3          13           0          13          13           0          13
      330470  1183797613         396         345           2           4           0           4          19           0          19
      330470  1183797726         498         460           0           5           0           5          19           0          19
      330470  1183797746         356         341           1           1           0           1           7           0           7
      330470  1183797788         582         503           2          10           0          10          34           0          34
      330470  1183798102         796         915           4          12           0          12          37           0          37
      330470  1183798170         408         355           2           5           0           5          14           0          14
      330470  1183799182         527         500           0           3           0           3          22           0          22
      330470  1183799941         511         496           2          14           0          14          17           0          17
      330470  1183800136         567         652           3          13           0          13          33           0          33
      330470  1183800710         470         476           1           5           0           5          17           0          17
      330470  1183801077         415         446           1           5           0           5          22           0          22
      330470  1183801428         382         344           1           4           0           4           9           0           9
      330470  1183802242         434         392           3           8           0           8          19           0          19
      330470  1183804252         552         594           2          12           0          12          21           0          21
      330470  1183804485         453         502           1          16           0          16          21           0          21
      330470  1183804522         298         235           1           0           0           0           7           0           7
      330470  1183806136         476         510           4           5           0           5          18           0          18
      330470  1183806285          10           0           0           0           0           0           0           0           0
      330470  1183806454         571         707           4          13           0          13          27           0          27
      330470  1183806526         264         320           2           2           0           2           7           0           7
      330470  1183807145         492         455           0          15           0          15          33           0          33
      330470  1183807361         528         595           3           9           0           9          27           0          27
      330470  1183807825         540         586           1          14           0          14          30           0          30
      330470  1183808819          67           0           0           0           0           0           4           0           4
      330470  1183809482         344         321           0           7           0           7          19           0          19
      330470  1183810229         534         491           2           9           0           9          31           0          31
      330470  1183810298         469         443           2          16           0          16          18           0          18
      330470  1183810366         418         451           1           2           0           2          11           0          11
      330470  1183810794         564         518           2           4           0           4          20           0          20
      330470  1183810833         344         387           1           9           0           9          12           0          12
      330470  1183811141         533         498           5           8           0           8          11           0          11
      330470  1183812547         491         473           5          18           0          18          24           0          24
      330470  1183812810         277         347           0           1           0           1           8           0           8
      330470  1183812846         410         468           2           7           0           7          20           0          20
      330470  1183813497         472         502           1           7           0           7          21           0          21
      330470  1183814282         230         216           2           0           0           0           1           0           1
      330470  1183814497         446         496           1           6           0           6           8           0           8
      330470  1183814582         455         491           2          12           0          12          24           0          24
      330470  1183815531         430         433           2          11           0          11          25           0          25
      330470  1183815710         298         321           1           4           0           4           9           0           9
      330470  1183815765         436         463           3          16           0          16          21           0          21
      330470  1183815791         645         693           1           9           0           9          23           0          23
      330470  1183815887         348         315           1           2           0           2          11           0          11
      330470  1183816290         430         424           1           6           0           6          18           0          18
      330470  1183817753         363         434           1           4           0           4          11           0          11
      330470  1183818559         391         522           2           7           0           7          18           0          18
      330470  1183819555         464         472           0           9           0           9          20           0          20
      330470  1183819588         406         330           1           6           0           6           8           0           8
      330470  1183820651         471         467           1           6           0           6          17           0          17
      330470  1183821157         321         214           2           2           0           2          11           0          11
      330470  1183821186         602         614           1           9           0           9          30           0          30
      330470  1183822476         453         504           0           9           0           9          20           0          20
      330470  1183823625         409         340           3          10           0          10          16           0          16
      330470  1183824371         362         307           0           2           0           2          12           0          12
      330470  1183824531         393         363           5          13           0          13          17           0          17
      330470  1183824603         479         406           1          14           0          14          27           0          27
      330470  1183824788         473         361           3           6           0           6          28           0          28
      330470  1183824934         357         456           2           7           0           7          13           0          13
      330470  1183825276         370         333           1           2           0           2          10           0          10
      330470  1183826504         533         507           4           7           0           7          26           0          26
      330470  1183826935         290         251           0           7           0           7          17           0          17
      330470  1183827424         359         352           1          22           0          22          16           0          16
      330470  1183828215         521         413           2          12           0          12          30           0          30
      330470  1183828765         562         596           4           4           0           4          25           0          25
      330470  1183828961         522         572           3           4           0           4          19           0          19
      330470  1183829595         473         420           0           5           0           5          17           0          17
      330470  1183829748         592         613           0          10           0          10          23           0          23
      330470  1183830135         428         476           1          14           0          14          22           0          22
      330470  1183830977         336         262           0           3           0           3          13           0          13
      330470  1183830990         540         523           4          15           0          15          27           0          27
      330470  1183831582         393         454           2           7           0           7          22           0          22
      330470  1183832519         522         516           4          20           0          20          25           0          25
      330470  1183832772         304         356           0          25           0          25          16           0          16
      330470  1183834476         519         539           9           9           0           9          25           0          25
      330470  1183835286         339         352           2           1           0           1          13           0          13
      330470  1183836095         394         312           1           7           0           7          23           0          23
      330470  1183836112         514         536           1          10           0          10          20           0          20
      330470  1183836199         475         470           0           9           0           9          16           0          16
      330470  1183836240         489         587           3           5           0           5          13           0          13
      330470  1183836600         493         436           1           6           0           6          30           0          30
      330470  1183837702         471         433           6          17           0          17          30           0          30
      330470  1183837736         456         491           0           8           0           8          16           0          16
      330470  1183839277         582         566           1          17           0          17          41           0          41
      330470  1183839321         414         350           4           2           0           2          19           0          19
      330470  1183839551         486         438           0           5           0           5          22           0          22
      330470  1183840149         458         446           2           9           0           9          23           0          23
      330470  1183840173           2           0           1           0           0           0           0           0           0
      330470  1183840255         384         492           1          23           0          23          25           0          25
      330470  1183840606         166         243           0           4           0           4           5           0           5
      330470  1183841326         447         463           0           5           0           5          13           0          13
      330470  1183841473         532         464           3           9           0           9          18           0          18
      330470  1183841864         392         329           1           4           0           4          16           0          16
      330470  1183842339         196         156           0           0           0           0           3           0           3
      330470  1183842483         550         508           0           5           0           5          19           0          19
      330470  1183842622         404         444           1           9           0           9          21           0          21
      330470  1183842772         432         461           1          16           0          16          23           0          23
      330470  1183843837         357         374           0           7           0           7          13           0          13
      330470  1183844385         400         394           1           4           0           4           8           0           8
      330470  1183846886         385         267           0           4           0           4          20           0          20
      330470  1183847401         470         461           2           8           0           8          18           0          18
      330470  1183847806         433         488           1          15           0          15          20           0          20
      330470  1183848014         277         272           1          14           0          14          11           0          11
      330470  1183848066         352         393           1          10           0          10          20           0          20
      330470  1183848576         546         592           5           5           0           5          24           0          24
      330470  1183848643         540         480           5           5           0           5          31           0          31
      330470  1183848807         343         352           0           1           0           1          15           0          15
      330470  1183849444         393         339           2           3           0           3          22           0          22
      330470  1183849956         253         279           2          10           0          10          11           0          11
      330470  1183850785         343         364           1           6           0           6          12           0          12
      330470  1183851527         609         569           1           9           0           9          27           0          27
      330470  1183852090         470         447           3           4           0           4          17           0          17
      330470  1183852355         410         415           0           3           0           3          14           0          14
      330470  1183852362         567         668           1          16           0          16          29           0          29
      330470  1183852486         387         405           2           4           0           4          15           0          15
      330470  1183852552         509         470           3          18           0          18          20           0          20
      330470  1183853281         404         390           2           5           0           5          14           0          14
      330470  1183853303         555         525           5           6           0           6          25           0          25
      330470  1183853317         313         327           5           4           0           4          15           0          15
      330470  1183853842         629         584           1          10           0          10          28           0          28
      330470  1183854086         313         362           1           6           0           6          11           0          11
      330470  1183854099         444         521           0           2           0           2          13           0          13
      330470  1183854665         506         450           0           6           0           6          14           0          14
      330470  1183855151         279         207           0           2           0           2           3           0           3
      330470  1183855909         300         282           4           2           0           2           6           0           6
      330470  1183856263         586         621           3          10           0          10          29           0          29
      330470  1183856484         298         261           4           7           0           7          10           0          10
      330470  1183856702         357         283           2           1           0           1           8           0           8
      330470  1183856842         380         399           0           7           0           7          20           0          20
      330470  1183857840         423         330           0           1           0           1          13           0          13
      330470  1183858892         460         509           2           8           0           8          12           0          12
      330470  1183859367         554         535           2           4           0           4          26           0          26
      330470  1183859426         632         574           1          23           0          23          32           0          32
      330470  1183859771         540         599           3          13           0          13          27           0          27
      330470  1183861290         541         453           3           8           0           8          25           0          25
      330470  1183862039         312         354           0           9           0           9          13           0          13
      330470  1183862102         432         490           1           5           0           5          15           0          15
      330470  1183864358         393         494           2           6           0           6          19           0          19
      330470  1183864963         403         469           1           7           0           7          11           0          11
      330470  1183865268         406         470           2           3           0           3          10           0          10
      330470  1183865985         317         290           0           2           0           2          13           0          13
      330470  1183867774         340         442           1           8           0           8          11           0          11
      330470  1183868866         493         560           0           7           0           7          18           0          18
      330470  1183869024         565         537           5          11           0          11          27           0          27
      330470  1183869310         402         349           3           1           0           1          16           0          16
      330470  1183869356         265         338           2           1           0           1           6           0           6
      330470  1183870427         309         228           2           5           0           5          12           0          12
      330470  1183871236         389         313           0           5           0           5          14           0          14
      330470  1183872430         298         309           2           2           0           2          11           0          11
      330470  1183873300         384         372           3           5           0           5          15           0          15
      330470  1183874095         543         642           4           8           0           8          25           0          25
      330470  1183874756         311         209           1           1           0           1           9           0           9
      330470  1183875240         638         762           1           9           0           9          28           0          28
      330470  1183875307         387         283           2           2           0           2          13           0          13
      330470  1183875842         334         411           0           3           0           3          18           0          18
      330470  1183876008         349         263           0           8           0           8          15           0          15
      330470  1183876257         276         366           0          15           0          15          17           0          17
      330470  1183876690         399         425           0           4           0           4          11           0          11
      330470  1183878183         469         389           2           7           0           7          16           0          16
      330470  1183878278         337         375           1           5           0           5          10           0          10
      330470  1183878363         529         583           5          15           0          15          26           0          26
      330470  1183879080         615         646           3           9           0           9          30           0          30
      330470  1183879154         597         628           4           8           0           8          28           0          28
      330470  1183879547         423         439           3           0           0           0          13           0          13
      330470  1183879670         489         525           2          13           0          13          21           0          21
      330470  1183879957         494         578           0          12           0          12          26           0          26
      330470  1183880152         349         453           3           1           0           1          16           0          16
      330470  1183880330         714         571           4          25           0          25          52           0          52
      330470  1183880565         526         371           1          10           0          10          35           0          35
      330470  1183880598         344         343           1           0           0           0           8           0           8
      330470  1183881102         302         277           1           1           0           1           8           0           8
      330470  1183881663         380         438           0          10           0          10          15           0          15
      330470  1183882016         429         458           0           4           0           4          13           0          13
      330470  1183882345         412         567           0           3           0           3          18           0          18
      330470  1183882414         401         322           3           1           0           1          12           0          12
      330470  1183882641         360         266           1           7           0           7          17           0          17
      330470  1183882886         422         491           2           2           0           2          10           0          10
      330470  1183884717         238         261           2           2           0           2           6           0           6
      330470  1183885069         292         240           3          12           0          12          13           0          13
      330470  1183885910         310         358           1          11           0          11          16           0          16
      330470  1183889121         367         381           1          11           0          11          20           0          20
      330470  1183889788         361         471           2          13           0          13          20           0          20
      330470  1183890058         429         392           1           6           0           6          21           0          21
      330470  1183890245         558         582           1           5           0           5          23           0          23
      330470  1183891126         511         511           4          10           0          10          18           0          18
      330470  1183891888         517         590           3          13           0          13          15           0          15
      330470  1183893310         354         391           0           4           0           4          15           0          15
      330470  1183893518         503         621           4           9           0           9          12           0          12
      330470  1183894187         466         444           1          13           0          13          15           0          15
      330470  1183895022         461         448           2           5           0           5          14           0          14
      330470  1183896389         346         404           1           7           0           7          14           0          14
      330470  1183896930         499         499           1           4           0           4          19           0          19
      330470  1183896962         496         484           2           4           0           4          29           0          29
      330470  1183898226         431         452           4           2           0           2          11           0          11
      330470  1183899486         545         697           4          16           0          16          28           0          28
      330470  1183899562         274         243           2           7           0           7          12           0          12
      330470  1183899751         344         353           2           6           0           6          13           0          13
      330470  1183899810         410         343           0           5           0           5          23           0          23
      330470  1183900525         426         347           4           9           0           9          18           0          18
      330470  1183900622         378         296           6          10           0          10           8           0           8
      330470  1183900768         526         620           1           5           0           5          20           0          20
      330470  1183901965         365         364           3           5           0           5          15           0          15
      330470  1183902483         403         557           2           3           0           3          16           0          16
      330470  1183903458         514         607           4          12           0          12          19           0          19
      330470  1183904017         510         575           2           9           0           9          20           0          20
      330470  1183904322         462         486           2           2           0           2           8           0           8
      330470  1183905778         417         501           1           7           0           7          14           0          14
      330470  1183905825         411         391           2           5           0           5          13           0          13
      330470  1183906093         541         525           1           5           0           5          23           0          23
      330470  1183906408         465         512           2          12           0          12          17           0          17
      330470  1183906803         370         325           0          22           0          22          31           0          31
      330470  1183907843         453         484           1          11           0          11           9           0           9
      330470  1183908667         350         463           1           6           0           6           9           0           9
      330470  1183908690         449         528           2           5           0           5          22           0          22
      330470  1183908710         426         488           2           4           0           4           9           0           9
      330470  1183908744         541         560           3           3           0           3          19           0          19
      330470  1183909765         478         403           1          12           0          12          28           0          28
      330470  1183910082         699         606           5           5           0           5          26           0          26
      330470  1183910510         247         325           1           7           0           7           9           0           9
      330470  1183910733         396         440           1          10           0          10          12           0          12
      330470  1183912333         584         522           4          15           0          15          42           0          42
      330470  1183914006         420         400           0          15           0          15          24           0          24
      330470  1183914114         562         560           5          13           0          13          26           0          26
      330470  1183916856         326         375           0           2           0           2          14           0          14
      330470  1183918650         391         424           1           8           0           8          16           0          16
      330470  1183918694         364         432           0           2           0           2           7           0           7
      330470  1183919637         448         529           2           5           0           5          14           0          14
      330470  1183919773         240         206           0           2           0           2           6           0           6
      330470  1183919850         297         329           0           3           0           3           8           0           8
      330470  1183920419         468         459           0           2           0           2          14           0          14
      330470  1183920452         514         494           1           5           0           5          17           0          17
      330470  1183921161         491         532           2           5           0           5          23           0          23
      330470  1183921212         602         625           5          16           0          16          25           0          25
      330470  1183921894         119           0           0           0           0           0           3           0           3
      330470  1183922353         586         547           0           9           0           9          22           0          22
      330470  1183923963         422         453           0           5           0           5          12           0          12
      330470  1183924996         367         385           6           2           0           2           7           0           7
      330470  1183926015         402         366           0           2           0           2          19           0          19
      330470  1183927700         330         322           3           6           0           6           4           0           4
      330470  1183927897         390         345           0           3           0           3          10           0          10
      330470  1183929011         454         450           0          12           0          12          30           0          30
      330470  1183929579         449         385           3           2           0           2          16           0          16
      330470  1183929756         645         750           2          14           0          14          28           0          28
      330470  1183930152         444         419           2           4           0           4          13           0          13
      330470  1183930444         347         384           4           3           0           3          14           0          14
      330470  1183930564         539         427           2          11           0          11          36           0          36
      330470  1183931811         465         375           0           8           0           8          18           0          18
      330470  1183932465         456         541           3          11           0          11          17           0          17
      330470  1183933264         514         450           2           4           0           4          10           0          10
      330470  1183934061         556         608           2          15           0          15          31           0          31
      330470  1183934188         559         640           0          11           0          11          28           0          28
      330470  1183935176         505         635           1           7           0           7          21           0          21
      330470  1183935243         406         422           3          15           0          15          26           0          26
      330470  1183936048         505         442           0          13           0          13          24           0          24
      330470  1183937915         358         330           0           5           0           5           9           0           9
      330470  1183937927         530         536           2           8           0           8          24           0          24
      330470  1183938712         427         382           1           2           0           2          20           0          20
      330470  1183938824         345         394           2           3           0           3          11           0          11
      330470  1183939219         533         500           2           9           0           9          16           0          16
      330470  1183939285         273         161           0           5           0           5           8           0           8
      330470  1183939881         561         508           3           6           0           6          22           0          22
      330470  1183941479         270         333           1           2           0           2           6           0           6
      330470  1183943435          21           0           0           0           0           0           0           0           0
      330470  1183944121         428         399           2           5           0           5          25           0          25
      330470  1183944525         423         496           1           6           0           6          13           0          13
      330470  1183946835         778         886           4          24           0          24          38           0          38
      330470  1183949177         403         463           1           7           0           7          17           0          17
      330470  1183949782         548         522           2          12           0          12          20           0          20
      330470  1183952907         561         642           4           9           0           9          16           0          16
      330470  1183953399         578         478           0          13           0          13          31           0          31
      330470  1183953421         469         330           3           3           0           3          11           0          11
      330470  1183953881         339         367           2           2           0           2           6           0           6
      330470  1183954827         344         429           1           7           0           7          14           0          14
      330470  1183957781           3           0           0           0           0           0           0           0           0
      330470  1183958083         367         377           1          10           0          10          13           0          13
      330470  1183960085         586         580           4           7           0           7          13           0          13
      330470  1183960556         370         351           1           4           0           4           8           0           8
      330470  1183961006         467         453           1          15           0          15          19           0          19
      330470  1183961573         616         717           5          11           0          11          22           0          22
      330470  1183961597         351         258           1           3           0           3          14           0          14
      330470  1183963195         522         567           1          13           0          13          20           0          20
      330470  1183969128         303         350           1          12           0          12          17           0          17
      330470  1183969905         585         593           1          14           0          14          23           0          23
      330470  1183970393         350         359           0           8           0           8          14           0          14
      330470  1183970582         174         223           1           2           0           2           5           0           5
      330470  1183973235         544         533           1           5           0           5          17           0          17
      330470  1183974800         386         404           1           4           0           4          15           0          15
      330470  1183975144         422         516           0           8           0           8          28           0          28
      330470  1183977930         266         296           0           6           0           6           8           0           8
      330470  1183979636         434         503           1           4           0           4          10           0          10
      330470  1183982156         373         450           1           2           0           2          10           0          10
      330470  1183982855         448         401           2           2           0           2          14           0          14
      330470  1183983079         512         545           2           7           0           7          29           0          29
      330470  1183983113         387         382           1           3           0           3          17           0          17
      330470  1183984897         342         293           0          14           0          14          15           0          15
      330470  1183985311         421         572           1          12           0          12          12           0          12
      330470  1183987027         468         480           0           4           0           4          17           0          17
      330470  1183988197         390         422           4           4           0           4          19           0          19
      330470  1183991258         380         393           2           1           0           1          13           0          13
      330470  1183991399         859         818           1           9           0           9          44           0          44
      330470  1183994870         492         543           1          12           0          12          25           0          25
      330470  1183995076         239         205           1           0           0           0           5           0           5
      330470  1183995604         394         354           0           2           0           2          13           0          13
      330470  1183995956         394         390           1           8           0           8          12           0          12
      330470  1183997552         522         536           0           4           0           4          23           0          23
      330470  1183997623         408         325           2           6           0           6          14           0          14
      330470  1183997905         350         317           0           1           0           1           6           0           6
      330470  1184001332         450         406           6          11           0          11          26           0          26
      330470  1184003671         421         386           1           6           0           6          16           0          16
      330470  1184007839         421         441           3           9           0           9          15           0          15
      330470  1184010792         477         468           0           5           0           5          15           0          15
      330470  1184011907         359         414           1           2           0           2          16           0          16
      330470  1184012123         368         329           1          10           0          10          22           0          22
      330470  1184013681         311         239           0           1           0           1          12           0          12
      330470  1184014074         358         359           0           3           0           3          12           0          12
      330470  1184016450         487         503           1          13           0          13          29           0          29
      330470  1184019719         414         367           1           3           0           3          20           0          20
      330470  1184020401         563         454           4           7           0           7          28           0          28
      330470  1184026109         415         333           0          11           0          11          20           0          20
      330470  1184026603         601         609           2           6           0           6          26           0          26
      330470  1184027737         477         484           0           0           0           0          16           0          16
      330470  1184028312         570         580           1          10           0          10          30           0          30
      330470  1184044299         105           0           0           0           0           0           0           0           0
      330470  1184045730         361         462           1           5           0           5          14           0          14
      330470  1184048892         508         454           1           8           0           8          30           0          30
      330470  1184054880         375         337           0           2           0           2           6           0           6
      330470  1184055196         330         270           1           4           0           4          11           0          11
      330470  1184064491          68           0           0           0           0           0           0           0           0
      330470  1184065397          91           0           0           0           0           0           3           0           3
